^C:\USERS\JPLOOMS\DOCUMENTS\VISUAL STUDIO 2010\PROJECTS\TIMECARD2012\TIMECARD2012\FRMLOGIN.RESX
^C:\USERS\JPLOOMS\DOCUMENTS\VISUAL STUDIO 2010\PROJECTS\TIMECARD2012\TIMECARD2012\PROPERTIES\RESOURCES.RESX
^C:\USERS\JPLOOMS\DOCUMENTS\VISUAL STUDIO 2010\PROJECTS\TIMECARD2012\TIMECARD2012\FRMSETUP.RESX
^C:\USERS\JPLOOMS\DOCUMENTS\VISUAL STUDIO 2010\PROJECTS\TIMECARD2012\TIMECARD2012\FRMSCHEDULER.RESX
^C:\USERS\JPLOOMS\DOCUMENTS\VISUAL STUDIO 2010\PROJECTS\TIMECARD2012\TIMECARD2012\FRMOVERCLOCKED.RESX
^C:\USERS\JPLOOMS\DOCUMENTS\VISUAL STUDIO 2010\PROJECTS\TIMECARD2012\TIMECARD2012\TIMECARD\FRMDATESELECTION.RESX
^C:\USERS\JPLOOMS\DOCUMENTS\VISUAL STUDIO 2010\PROJECTS\TIMECARD2012\TIMECARD2012\TIMECARD\FRMTCARD.RESX
^C:\USERS\JPLOOMS\DOCUMENTS\VISUAL STUDIO 2010\PROJECTS\TIMECARD2012\TIMECARD2012\FRMMAIN.RESX
^C:\USERS\JPLOOMS\DOCUMENTS\VISUAL STUDIO 2010\PROJECTS\TIMECARD2012\TIMECARD2012\ABOUTBOX1.RESX
