^C:\USERS\JPLOOMS\DOCUMENTS\VISUAL STUDIO 2010\PROJECTS\TIMECARD2012\TIMECARD2012\FRMLOGIN.RESX|C:\USERS\JPLOOMS\DOCUMENTS\VISUAL STUDIO 2010\PROJECTS\TIMECARD2012\TIMECARD2012\FRMMAIN.RESX|C:\USERS\JPLOOMS\DOCUMENTS\VISUAL STUDIO 2010\PROJECTS\TIMECARD2012\TIMECARD2012\FRMSETUP.RESX|C:\USERS\JPLOOMS\DOCUMENTS\VISUAL STUDIO 2010\PROJECTS\TIMECARD2012\TIMECARD2012\PROPERTIES\RESOURCES.RESX
C:\USERS\JPLOOMS\DOCUMENTS\VISUAL STUDIO 2010\PROJECTS\TIMECARD2012\TIMECARD2012\OBJ\X86\RELEASE\TIMECARD2012.FRMLOGIN.RESOURCES
C:\USERS\JPLOOMS\DOCUMENTS\VISUAL STUDIO 2010\PROJECTS\TIMECARD2012\TIMECARD2012\OBJ\X86\RELEASE\TIMECARD2012.FRMMAIN.RESOURCES
C:\USERS\JPLOOMS\DOCUMENTS\VISUAL STUDIO 2010\PROJECTS\TIMECARD2012\TIMECARD2012\OBJ\X86\RELEASE\TIMECARD2012.PROPERTIES.RESOURCES.RESOURCES
C:\USERS\JPLOOMS\DOCUMENTS\VISUAL STUDIO 2010\PROJECTS\TIMECARD2012\TIMECARD2012\OBJ\X86\RELEASE\TIMECARD2012.FRMSETUP.RESOURCES
^C:\USERS\JPLOOMS\DOCUMENTS\VISUAL STUDIO 2010\PROJECTS\TIMECARD2012\TIMECARD2012\FRMLOGIN.RESX|C:\USERS\JPLOOMS\DOCUMENTS\VISUAL STUDIO 2010\PROJECTS\TIMECARD2012\TIMECARD2012\FRMMAIN.RESX|C:\USERS\JPLOOMS\DOCUMENTS\VISUAL STUDIO 2010\PROJECTS\TIMECARD2012\TIMECARD2012\FRMSCHEDULER.RESX|C:\USERS\JPLOOMS\DOCUMENTS\VISUAL STUDIO 2010\PROJECTS\TIMECARD2012\TIMECARD2012\FRMSETUP.RESX|C:\USERS\JPLOOMS\DOCUMENTS\VISUAL STUDIO 2010\PROJECTS\TIMECARD2012\TIMECARD2012\PROPERTIES\RESOURCES.RESX
C:\USERS\JPLOOMS\DOCUMENTS\VISUAL STUDIO 2010\PROJECTS\TIMECARD2012\TIMECARD2012\OBJ\X86\RELEASE\TIMECARD2012.FRMLOGIN.RESOURCES
C:\USERS\JPLOOMS\DOCUMENTS\VISUAL STUDIO 2010\PROJECTS\TIMECARD2012\TIMECARD2012\OBJ\X86\RELEASE\TIMECARD2012.FRMMAIN.RESOURCES
C:\USERS\JPLOOMS\DOCUMENTS\VISUAL STUDIO 2010\PROJECTS\TIMECARD2012\TIMECARD2012\OBJ\X86\RELEASE\TIMECARD2012.FRMSCHEDULER.RESOURCES
C:\USERS\JPLOOMS\DOCUMENTS\VISUAL STUDIO 2010\PROJECTS\TIMECARD2012\TIMECARD2012\OBJ\X86\RELEASE\TIMECARD2012.PROPERTIES.RESOURCES.RESOURCES
C:\USERS\JPLOOMS\DOCUMENTS\VISUAL STUDIO 2010\PROJECTS\TIMECARD2012\TIMECARD2012\OBJ\X86\RELEASE\TIMECARD2012.FRMSETUP.RESOURCES
^C:\USERS\JPLOOMS\DOCUMENTS\VISUAL STUDIO 2010\PROJECTS\TIMECARD2012\TIMECARD2012\FRMLOGIN.RESX|C:\USERS\JPLOOMS\DOCUMENTS\VISUAL STUDIO 2010\PROJECTS\TIMECARD2012\TIMECARD2012\FRMMAIN.RESX|C:\USERS\JPLOOMS\DOCUMENTS\VISUAL STUDIO 2010\PROJECTS\TIMECARD2012\TIMECARD2012\FRMSCHEDULER.RESX|C:\USERS\JPLOOMS\DOCUMENTS\VISUAL STUDIO 2010\PROJECTS\TIMECARD2012\TIMECARD2012\FRMSETUP.RESX|C:\USERS\JPLOOMS\DOCUMENTS\VISUAL STUDIO 2010\PROJECTS\TIMECARD2012\TIMECARD2012\PROPERTIES\RESOURCES.RESX|C:\USERS\JPLOOMS\DOCUMENTS\VISUAL STUDIO 2010\PROJECTS\TIMECARD2012\TIMECARD2012\TIMECARD\FRMDATESELECTION.RESX|C:\USERS\JPLOOMS\DOCUMENTS\VISUAL STUDIO 2010\PROJECTS\TIMECARD2012\TIMECARD2012\TIMECARD\FRMTCARD.RESX
C:\USERS\JPLOOMS\DOCUMENTS\VISUAL STUDIO 2010\PROJECTS\TIMECARD2012\TIMECARD2012\OBJ\X86\RELEASE\TIMECARD2012.FRMLOGIN.RESOURCES
C:\USERS\JPLOOMS\DOCUMENTS\VISUAL STUDIO 2010\PROJECTS\TIMECARD2012\TIMECARD2012\OBJ\X86\RELEASE\TIMECARD2012.FRMMAIN.RESOURCES
C:\USERS\JPLOOMS\DOCUMENTS\VISUAL STUDIO 2010\PROJECTS\TIMECARD2012\TIMECARD2012\OBJ\X86\RELEASE\TIMECARD2012.FRMSCHEDULER.RESOURCES
C:\USERS\JPLOOMS\DOCUMENTS\VISUAL STUDIO 2010\PROJECTS\TIMECARD2012\TIMECARD2012\OBJ\X86\RELEASE\TIMECARD2012.PROPERTIES.RESOURCES.RESOURCES
C:\USERS\JPLOOMS\DOCUMENTS\VISUAL STUDIO 2010\PROJECTS\TIMECARD2012\TIMECARD2012\OBJ\X86\RELEASE\TIMECARD2012.FRMSETUP.RESOURCES
C:\USERS\JPLOOMS\DOCUMENTS\VISUAL STUDIO 2010\PROJECTS\TIMECARD2012\TIMECARD2012\OBJ\X86\RELEASE\TIMECARD2012.TIMECARD.FRMDATESELECTION.RESOURCES
C:\USERS\JPLOOMS\DOCUMENTS\VISUAL STUDIO 2010\PROJECTS\TIMECARD2012\TIMECARD2012\OBJ\X86\RELEASE\TIMECARD2012.TIMECARD.FRMTCARD.RESOURCES
^C:\USERS\JPLOOMS\DOCUMENTS\VISUAL STUDIO 2010\PROJECTS\TIMECARD2012\TIMECARD2012\FRMLOGIN.RESX|C:\USERS\JPLOOMS\DOCUMENTS\VISUAL STUDIO 2010\PROJECTS\TIMECARD2012\TIMECARD2012\FRMMAIN.RESX|C:\USERS\JPLOOMS\DOCUMENTS\VISUAL STUDIO 2010\PROJECTS\TIMECARD2012\TIMECARD2012\FRMOVERCLOCKED.RESX|C:\USERS\JPLOOMS\DOCUMENTS\VISUAL STUDIO 2010\PROJECTS\TIMECARD2012\TIMECARD2012\FRMSCHEDULER.RESX|C:\USERS\JPLOOMS\DOCUMENTS\VISUAL STUDIO 2010\PROJECTS\TIMECARD2012\TIMECARD2012\FRMSETUP.RESX|C:\USERS\JPLOOMS\DOCUMENTS\VISUAL STUDIO 2010\PROJECTS\TIMECARD2012\TIMECARD2012\PROPERTIES\RESOURCES.RESX|C:\USERS\JPLOOMS\DOCUMENTS\VISUAL STUDIO 2010\PROJECTS\TIMECARD2012\TIMECARD2012\TIMECARD\FRMDATESELECTION.RESX|C:\USERS\JPLOOMS\DOCUMENTS\VISUAL STUDIO 2010\PROJECTS\TIMECARD2012\TIMECARD2012\TIMECARD\FRMTCARD.RESX
C:\USERS\JPLOOMS\DOCUMENTS\VISUAL STUDIO 2010\PROJECTS\TIMECARD2012\TIMECARD2012\OBJ\X86\RELEASE\TIMECARD2012.FRMLOGIN.RESOURCES
C:\USERS\JPLOOMS\DOCUMENTS\VISUAL STUDIO 2010\PROJECTS\TIMECARD2012\TIMECARD2012\OBJ\X86\RELEASE\TIMECARD2012.FRMMAIN.RESOURCES
C:\USERS\JPLOOMS\DOCUMENTS\VISUAL STUDIO 2010\PROJECTS\TIMECARD2012\TIMECARD2012\OBJ\X86\RELEASE\TIMECARD2012.FRMOVERCLOCKED.RESOURCES
C:\USERS\JPLOOMS\DOCUMENTS\VISUAL STUDIO 2010\PROJECTS\TIMECARD2012\TIMECARD2012\OBJ\X86\RELEASE\TIMECARD2012.FRMSCHEDULER.RESOURCES
C:\USERS\JPLOOMS\DOCUMENTS\VISUAL STUDIO 2010\PROJECTS\TIMECARD2012\TIMECARD2012\OBJ\X86\RELEASE\TIMECARD2012.PROPERTIES.RESOURCES.RESOURCES
C:\USERS\JPLOOMS\DOCUMENTS\VISUAL STUDIO 2010\PROJECTS\TIMECARD2012\TIMECARD2012\OBJ\X86\RELEASE\TIMECARD2012.FRMSETUP.RESOURCES
C:\USERS\JPLOOMS\DOCUMENTS\VISUAL STUDIO 2010\PROJECTS\TIMECARD2012\TIMECARD2012\OBJ\X86\RELEASE\TIMECARD2012.TIMECARD.FRMDATESELECTION.RESOURCES
C:\USERS\JPLOOMS\DOCUMENTS\VISUAL STUDIO 2010\PROJECTS\TIMECARD2012\TIMECARD2012\OBJ\X86\RELEASE\TIMECARD2012.TIMECARD.FRMTCARD.RESOURCES
^C:\USERS\JPLOOMS\DOCUMENTS\VISUAL STUDIO 2010\PROJECTS\TIMECARD2012\TIMECARD2012\ABOUTBOX1.RESX|C:\USERS\JPLOOMS\DOCUMENTS\VISUAL STUDIO 2010\PROJECTS\TIMECARD2012\TIMECARD2012\FRMLOGIN.RESX|C:\USERS\JPLOOMS\DOCUMENTS\VISUAL STUDIO 2010\PROJECTS\TIMECARD2012\TIMECARD2012\FRMMAIN.RESX|C:\USERS\JPLOOMS\DOCUMENTS\VISUAL STUDIO 2010\PROJECTS\TIMECARD2012\TIMECARD2012\FRMOVERCLOCKED.RESX|C:\USERS\JPLOOMS\DOCUMENTS\VISUAL STUDIO 2010\PROJECTS\TIMECARD2012\TIMECARD2012\FRMSCHEDULER.RESX|C:\USERS\JPLOOMS\DOCUMENTS\VISUAL STUDIO 2010\PROJECTS\TIMECARD2012\TIMECARD2012\FRMSETUP.RESX|C:\USERS\JPLOOMS\DOCUMENTS\VISUAL STUDIO 2010\PROJECTS\TIMECARD2012\TIMECARD2012\PROPERTIES\RESOURCES.RESX|C:\USERS\JPLOOMS\DOCUMENTS\VISUAL STUDIO 2010\PROJECTS\TIMECARD2012\TIMECARD2012\TIMECARD\FRMDATESELECTION.RESX|C:\USERS\JPLOOMS\DOCUMENTS\VISUAL STUDIO 2010\PROJECTS\TIMECARD2012\TIMECARD2012\TIMECARD\FRMTCARD.RESX
C:\USERS\JPLOOMS\DOCUMENTS\VISUAL STUDIO 2010\PROJECTS\TIMECARD2012\TIMECARD2012\OBJ\X86\RELEASE\TIMECARD2012.ABOUTBOX1.RESOURCES
C:\USERS\JPLOOMS\DOCUMENTS\VISUAL STUDIO 2010\PROJECTS\TIMECARD2012\TIMECARD2012\OBJ\X86\RELEASE\TIMECARD2012.FRMLOGIN.RESOURCES
C:\USERS\JPLOOMS\DOCUMENTS\VISUAL STUDIO 2010\PROJECTS\TIMECARD2012\TIMECARD2012\OBJ\X86\RELEASE\TIMECARD2012.FRMMAIN.RESOURCES
C:\USERS\JPLOOMS\DOCUMENTS\VISUAL STUDIO 2010\PROJECTS\TIMECARD2012\TIMECARD2012\OBJ\X86\RELEASE\TIMECARD2012.FRMOVERCLOCKED.RESOURCES
C:\USERS\JPLOOMS\DOCUMENTS\VISUAL STUDIO 2010\PROJECTS\TIMECARD2012\TIMECARD2012\OBJ\X86\RELEASE\TIMECARD2012.FRMSCHEDULER.RESOURCES
C:\USERS\JPLOOMS\DOCUMENTS\VISUAL STUDIO 2010\PROJECTS\TIMECARD2012\TIMECARD2012\OBJ\X86\RELEASE\TIMECARD2012.PROPERTIES.RESOURCES.RESOURCES
C:\USERS\JPLOOMS\DOCUMENTS\VISUAL STUDIO 2010\PROJECTS\TIMECARD2012\TIMECARD2012\OBJ\X86\RELEASE\TIMECARD2012.FRMSETUP.RESOURCES
C:\USERS\JPLOOMS\DOCUMENTS\VISUAL STUDIO 2010\PROJECTS\TIMECARD2012\TIMECARD2012\OBJ\X86\RELEASE\TIMECARD2012.TIMECARD.FRMDATESELECTION.RESOURCES
C:\USERS\JPLOOMS\DOCUMENTS\VISUAL STUDIO 2010\PROJECTS\TIMECARD2012\TIMECARD2012\OBJ\X86\RELEASE\TIMECARD2012.TIMECARD.FRMTCARD.RESOURCES
